sars2pack: Easy access to and use of iconic COVID-19 data resource — sars2pack-package • sars2pack
…
Incorporate examplar workflows that leverage the extensive R
data science ecosystem to visualize, analyze, and integrate
COVID-19 data resources.

    Foo functions

The foo functions ...

    Examples

library(sars2pack)

# Show me all the available datasets
available_datasets()
#> # A tibble: 27 x 8
#>    name    accessor  data_type geographical geospatial region resolution url    
#>    <chr>   <chr>     <list>    <lgl>        <lgl>      <list> <list>     <chr>  
#>  1 Extens… us_hospi… <chr [1]> TRUE         TRUE       <chr … <chr [1]>  https:…
#>  2 US cou… us_count… <chr [1]> TRUE         FALSE      <chr … <chr [3]>  https:…
#>  3 Corona… coronane… <chr [1]> TRUE         FALSE      <chr … <chr [2]>  https:…
#>  4 Our Wo… owid_data <chr [4]> TRUE         FALSE      <chr … <chr [1]>  https:…
#>  5 GISAID… cov_glue… <chr [1]> TRUE         FALSE      <chr … <chr [1]>  https:…
#>  6 Newick… cov_glue… <chr [1]> FALSE        FALSE      <chr … <chr [1]>  https:…
#>  7 US CDC… cdc_exce… <chr [3]> TRUE         FALSE      <chr … <chr [1]>  https:…
#>  8 Publis… param_es… <chr [1]> FALSE        FALSE      <NULL> <NULL>     https:…
#>  9 Aggreg… cdc_aggr… <chr [1]> TRUE         FALSE      <NULL> <chr [2]>  https:…
#> 10 Google… google_m… <chr [1]> TRUE         FALSE      <chr … <chr [3]>  https:…
#> # … with 17 more rows
…
